…
#### Answer the following questions:

##### How many unique locations are included in the dataset? Is every state represented? What state is observed the most?

``` r
# Unique locations
distinct(brfss_data, county)
```

    ## # A tibble: 404 x 1
    ##    county                     
    ##    <chr>                      
    ##  1 AK - Anchorage Municipality
    ##  2 AL - Jefferson County      
    ##  3 AR - Pulaski County        
    ##  4 AZ - Maricopa County       
    ##  5 AZ - Pima County           
    ##  6 CA - Los Angeles County    
    ##  7 CO - Adams County          
    ##  8 CO - Arapahoe County       
    ##  9 CO - Denver County         
    ## 10 CO - Jefferson County      
    ## # ... with 394 more rows

``` r
# States that are represented
distinct(brfss_data, state)
```

    ## # A tibble: 51 x 1
    ##    state
    ##    <chr>
    ##  1 AK   
    ##  2 AL   
    ##  3 AR   
    ##  4 AZ   
    ##  5 CA   
    ##  6 CO   
    ##  7 CT   
    ##  8 DC   
    ##  9 DE   
    ## 10 FL   
    ## # ... with 41 more rows

``` r
# Count of states
brfss_data %>% 
  count(state)
```

    ## # A tibble: 51 x 2
    ##    state     n
    ##    <chr> <int>
    ##  1 AK       11
    ##  2 AL       18
    ##  3 AR       21
    ##  4 AZ       32
    ##  5 CA       52
    ##  6 CO       59
    ##  7 CT       47
    ##  8 DC        9
    ##  9 DE       27
    ## 10 FL      122
    ## # ... with 41 more rows
…
